<svg width="102" height="106" viewBox="0 0 102 106" fill="none" xmlns="http://www.w3.org/2000/svg">
<g clip-path="url(#clip0_248_665)">
<path d="M49.5834 7.08301H21.2501C17.3542 7.08301 14.2022 10.2705 14.2022 14.1663L14.1667 70.833C14.1667 74.7288 17.3188 77.9163 21.2147 77.9163H63.7501C67.6459 77.9163 70.8334 74.7288 70.8334 70.833V28.333L49.5834 7.08301ZM21.2501 70.833V14.1663H46.0417V31.8747H63.7501V70.833H21.2501Z" fill="#1DBA49"/>
<rect x="42" y="44" width="47" height="57" fill="white"/>
</g>
<path d="M86.0229 85.2201H83.4934L82.5969 84.3556C85.7347 80.7055 87.6238 75.9668 87.6238 70.8119C87.6238 59.3173 78.3065 50 66.8119 50C55.3173 50 46 59.3173 46 70.8119C46 82.3065 55.3173 91.6238 66.8119 91.6238C71.9668 91.6238 76.7055 89.7347 80.3556 86.5969L81.2201 87.4934V90.0229L97.2293 106L102 101.229L86.0229 85.2201ZM66.8119 85.2201C58.8393 85.2201 52.4037 78.7844 52.4037 70.8119C52.4037 62.8393 58.8393 56.4037 66.8119 56.4037C74.7844 56.4037 81.2201 62.8393 81.2201 70.8119C81.2201 78.7844 74.7844 85.2201 66.8119 85.2201Z" fill="#1DBA49"/>
<defs>
<clipPath id="clip0_248_665">
<rect width="85" height="85" fill="white"/>
</clipPath>
</defs>
</svg>
